…
### 2.3.4 - Ator e Gênero

> Pergunta: Quais atores preferem quais gêneros?

``` r
df_atores_genero %>%
  count(Ator, Genre) %>%
  arrange(desc(n)) %>%
  head(30)
```

    ## # A tibble: 30 x 3
    ##    Ator              Genre     n
    ##    <chr>             <chr> <int>
    ##  1 Robert De Niro    Drama    17
    ##  2 Al Pacino         Drama    13
    ##  3 Robert De Niro    Crime    12
    ##  4 Al Pacino         Crime    11
    ##  5 Brad Pitt         Drama     9
    ##  6 Christian Bale    Drama     9
    ##  7 Denzel Washington Drama     9
    ##  8 Ethan Hawke       Drama     9
    ##  9 Leonardo DiCaprio Drama     9
    ## 10 Tom Hanks         Drama     9
    ## # ... with 20 more rows

### 2.3.5 - Ator e Diretor

> Pergunta: Quais diretores e atores costumam trabalhar juntos?

``` r
df_atores %>%
  count(Director, Ator) %>%
  arrange(desc(n))
```

    ## # A tibble: 3,731 x 3
    ##    Director          Ator                n
    ##    <chr>             <chr>           <int>
    ##  1 Akira Kurosawa    Toshirô Mifune      7
    ##  2 Charles Chaplin   Charles Chaplin     6
    ##  3 Joel Coen         Ethan Coen          6
    ##  4 Martin Scorsese   Robert De Niro      6
    ##  5 Akira Kurosawa    Tatsuya Nakadai     5
    ##  6 Clint Eastwood    Clint Eastwood      5
    ##  7 Peter Jackson     Ian McKellen        5
    ##  8 Richard Linklater Ethan Hawke         5
    ##  9 Woody Allen       Woody Allen         5
    ## 10 Akira Kurosawa    Takashi Shimura     4
    ## # ... with 3,721 more rows
…
